<svg id="a2dca9d6-c0f3-46fa-b282-14a621f6437d" data-name="f197b00c-378a-4822-a3cb-70519c6feeb7" xmlns="http://www.w3.org/2000/svg" width="250.91" height="99.55" viewBox="0 0 250.91 99.55">
  <title>Logo-08</title>
  <g>
    <rect width="250.91" height="99.55" fill="none"/>
    <g style="isolation: isolate">
      <g style="isolation: isolate">
        <path d="M116.48,35.92H109.1V24.19h2.49v9.63h4.89Z" fill="#fbfdfc"/>
      </g>
      <g style="isolation: isolate">
        <path d="M126.91,31v.6c0,2.74-1.45,4.46-4.22,4.46s-4.25-1.7-4.25-4.45V31c0-2.54,1.45-4.41,4.25-4.41S126.91,28.43,126.91,31Zm-6,0v.58c0,1.29.38,2.59,1.8,2.59s1.78-1.3,1.78-2.59v-.58c0-1.32-.38-2.6-1.78-2.6S120.88,29.75,120.88,31.06Z" fill="#fbfdfc"/>
      </g>
      <g style="isolation: isolate">
        <path d="M129.37,30.91a3.94,3.94,0,0,1,4.12-4.29c2.41,0,3.81,1.48,3.83,3.3H135.1a1.52,1.52,0,0,0-1.54-1.41c-1.17,0-1.76,1-1.76,2.43v.76c0,1.48.64,2.46,1.76,2.46a1.42,1.42,0,0,0,1.57-1.29h2.22c0,2-1.63,3.22-3.87,3.22-2.56,0-4.11-1.66-4.11-4.37Z" fill="#fbfdfc"/>
      </g>
      <g style="isolation: isolate">
        <path d="M142.63,36.06a2.72,2.72,0,0,1-3-2.77c0-1.65,1.15-2.72,3.26-2.72h2.2v-.88c0-.84-.52-1.23-1.41-1.23s-1.37.47-1.43,1.16H140c.06-1.54,1-3,3.76-3,2.18,0,3.75.86,3.75,3.11v6.17h-2.28V34.77h-.1A2.59,2.59,0,0,1,142.63,36.06Zm2.45-3.17V32h-1.62c-1,0-1.44.46-1.44,1.13a1.27,1.27,0,0,0,1.41,1.21A1.53,1.53,0,0,0,145.08,32.89Z" fill="#fbfdfc"/>
        <path d="M150.35,23.58h2.43V35.92h-2.43Z" fill="#fbfdfc"/>
      </g>
      <g style="isolation: isolate">
        <path d="M116.75,58.16H109.1V46.43h7.65v2h-5.19v2.85h4.89v1.87h-4.89v3h5.19Z" fill="#fbfdfc"/>
        <path d="M123,55.13h-.09l-1.7,3h-2.56l2.81-4.55L118.56,49h2.8L123,52h.1l1.7-3h2.65l-3,4.52,2.92,4.63h-2.7Z" fill="#fbfdfc"/>
        <path d="M132.06,56.82H132v4.36h-2.43V49h2.39v1.35H132a2.67,2.67,0,0,1,2.66-1.46c2,0,3.39,1.48,3.39,4.19v1c0,2.71-1.35,4.2-3.42,4.2A2.66,2.66,0,0,1,132.06,56.82Zm3.53-2.89v-.7c0-1.59-.7-2.42-1.81-2.42S132,51.7,132,53.15V54c0,1.4.7,2.38,1.84,2.38S135.59,55.56,135.59,53.93Z" fill="#fbfdfc"/>
        <path d="M140.15,54v-.71c0-2.77,1.64-4.39,4.11-4.39s4.08,1.73,4.08,4.38v.86h-5.82v.31a1.87,1.87,0,0,0,1.85,2.08c1,0,1.55-.52,1.63-1.13h2.26c-.11,1.27-1.16,3-3.88,3S140.15,56.72,140.15,54ZM146,52.61h0a1.74,1.74,0,0,0-1.73-2,1.77,1.77,0,0,0-1.76,2H146Z" fill="#fbfdfc"/>
        <path d="M150.85,49h2.43v1.27h.1a2,2,0,0,1,2.12-1.4,3.28,3.28,0,0,1,.74.07V51a3.66,3.66,0,0,0-.93-.09c-1.46,0-2,.85-2,2.08v5.14h-2.49Z" fill="#fbfdfc"/>
        <path d="M159.62,45.52a1.24,1.24,0,0,1,1.4,1.19c0,.69-.53,1.19-1.4,1.19a1.2,1.2,0,1,1,0-2.38ZM158.43,49h2.41v9.15h-2.41Z" fill="#fbfdfc"/>
        <path d="M163.46,54v-.71c0-2.77,1.64-4.39,4.11-4.39s4.08,1.73,4.08,4.38v.86h-5.82v.31a1.87,1.87,0,0,0,1.85,2.08,1.46,1.46,0,0,0,1.63-1.13h2.26c-.11,1.27-1.16,3-3.88,3S163.46,56.72,163.46,54Zm5.86-1.34h0a1.75,1.75,0,0,0-1.74-2,1.77,1.77,0,0,0-1.75,2h3.49Z" fill="#fbfdfc"/>
        <path d="M174.08,49h2.36v1.36h.1a2.74,2.74,0,0,1,2.64-1.5,3,3,0,0,1,3.13,3.28v6h-2.42V52.85c0-1.41-.71-1.93-1.67-1.93s-1.72.65-1.72,2v5.26h-2.42Z" fill="#fbfdfc"/>
        <path d="M184.73,53.15c0-2.51,1.5-4.3,4.12-4.3,2.41,0,3.81,1.48,3.83,3.3h-2.22a1.52,1.52,0,0,0-1.54-1.41c-1.17,0-1.76,1-1.76,2.43v.77c0,1.47.64,2.45,1.76,2.45a1.42,1.42,0,0,0,1.57-1.28h2.22c0,2-1.63,3.21-3.87,3.21-2.56,0-4.11-1.66-4.11-4.37Z" fill="#fbfdfc"/>
        <path d="M194.66,54v-.71c0-2.77,1.64-4.39,4.11-4.39s4.08,1.73,4.08,4.38v.86H197v.31a1.87,1.87,0,0,0,1.85,2.08,1.46,1.46,0,0,0,1.63-1.13h2.26c-.11,1.27-1.16,3-3.88,3S194.66,56.72,194.66,54Zm5.86-1.34h0a1.75,1.75,0,0,0-1.74-2,1.77,1.77,0,0,0-1.75,2h3.49Z" fill="#fbfdfc"/>
      </g>
      <g style="isolation: isolate">
        <path d="M111.3,80.38V70.71H108V68.65h9.06v2.06h-3.29v9.67Z" fill="#fbfdfc"/>
      </g>
      <g style="isolation: isolate">
        <path d="M119.17,71.24h2.43V72.5h.1a2,2,0,0,1,2.11-1.39,2.82,2.82,0,0,1,.75.07v2.08a3.58,3.58,0,0,0-.93-.1c-1.46,0-2,.85-2,2.08v5.14h-2.49Z" fill="#fbfdfc"/>
      </g>
      <g style="isolation: isolate">
        <path d="M129.65,80.52a2.72,2.72,0,0,1-3-2.77c0-1.65,1.15-2.72,3.26-2.72h2.2v-.89c0-.83-.52-1.22-1.41-1.22s-1.37.47-1.43,1.15H127c.06-1.53,1-3,3.76-3,2.18,0,3.75.86,3.75,3.11v6.17h-2.28V79.23h-.1A2.59,2.59,0,0,1,129.65,80.52Zm2.45-3.17v-.9h-1.62c-1,0-1.44.46-1.44,1.13a1.26,1.26,0,0,0,1.41,1.2A1.53,1.53,0,0,0,132.1,77.35Z" fill="#fbfdfc"/>
      </g>
      <g style="isolation: isolate">
        <path d="M136.57,71.24h2.62l1.71,6.92h.1l1.92-6.92h2.54l-3.18,9.14h-2.72Z" fill="#fbfdfc"/>
      </g>
      <g style="isolation: isolate">
        <path d="M147.21,76.18v-.71c0-2.77,1.64-4.4,4.11-4.4s4.08,1.74,4.08,4.39v.86h-5.82v.31a1.87,1.87,0,0,0,1.85,2.08c1,0,1.55-.52,1.63-1.14h2.26c-.11,1.27-1.16,3-3.88,3S147.21,79,147.21,76.18Zm5.86-1.34v0a1.75,1.75,0,0,0-1.73-2,1.78,1.78,0,0,0-1.76,2v0Z" fill="#fbfdfc"/>
        <path d="M157.91,68h2.42V80.38h-2.42Z" fill="#fbfdfc"/>
        <path d="M166.46,80.38l3.89-11.73h2.94l3.87,11.73H174.5l-.86-2.91h-3.82l-.88,2.91ZM171.69,71l-1.38,4.65h2.85L171.8,71Z" fill="#fbfdfc"/>
      </g>
      <g style="isolation: isolate">
        <path d="M186.39,80.11V78.82h-.1a2.66,2.66,0,0,1-2.58,1.43c-2,0-3.43-1.49-3.43-4.15v-.8c0-2.64,1.4-4.17,3.45-4.17a2.57,2.57,0,0,1,2.58,1.46h.11V71.24h2.38v9c0,2.62-2.14,3.51-4.38,3.51-2.73,0-3.91-1.36-3.95-2.8h2.33c.11.61.68,1,1.69,1A1.7,1.7,0,0,0,186.39,80.11Zm-3.64-4.68v.69c0,1.52.78,2.35,1.87,2.35s1.76-1,1.76-2.3v-.74c0-1.43-.68-2.4-1.77-2.4S182.75,73.92,182.75,75.43Z" fill="#fbfdfc"/>
      </g>
      <g style="isolation: isolate">
        <path d="M191.65,76.18v-.71c0-2.77,1.64-4.4,4.11-4.4s4.08,1.74,4.08,4.39v.86H194v.31a1.87,1.87,0,0,0,1.85,2.08c1,0,1.55-.52,1.64-1.14h2.26c-.12,1.27-1.16,3-3.89,3S191.65,79,191.65,76.18Zm5.86-1.34v0a1.75,1.75,0,0,0-1.73-2,1.78,1.78,0,0,0-1.76,2v0Z" fill="#fbfdfc"/>
        <path d="M202.28,71.24h2.35V72.6h.11a2.74,2.74,0,0,1,2.64-1.5,3,3,0,0,1,3.12,3.27v6h-2.41v-5.3c0-1.42-.71-1.93-1.68-1.93s-1.72.65-1.72,2v5.25h-2.41Z" fill="#fbfdfc"/>
      </g>
      <g style="isolation: isolate">
        <path d="M213.75,75.37c0-2.5,1.5-4.3,4.12-4.3,2.41,0,3.81,1.48,3.83,3.3h-2.22a1.52,1.52,0,0,0-1.54-1.4c-1.17,0-1.76,1-1.76,2.43v.76c0,1.48.64,2.46,1.76,2.46a1.42,1.42,0,0,0,1.57-1.29h2.22c0,2-1.63,3.21-3.87,3.21-2.56,0-4.11-1.65-4.11-4.36Z" fill="#fbfdfc"/>
      </g>
      <g style="isolation: isolate">
        <path d="M229.6,80.06l-.23.63c-.63,1.68-1.53,2.93-3.93,2.93a7.76,7.76,0,0,1-1.3-.1V81.8a4.94,4.94,0,0,0,.75.06c1.14,0,1.52-.44,1.65-1.19l.07-.29-3.12-9.14h2.67l1.84,7.1h.1l1.88-7.1h2.57S229.64,80,229.6,80.06Z" fill="#fbfdfc"/>
      </g>
    </g>
    <g>
      <g>
        <g>
          <rect x="14.64" y="61.56" width="6.33" height="24.67" fill="#fbfdfc"/>
          <path d="M79,74.13A13.13,13.13,0,1,1,65.64,61.24h.25A13,13,0,0,1,79,74.13Zm-6.28,0c0-4.14-3.07-7.49-6.87-7.49S59,70,59,74.13s3.06,7.48,6.87,7.48S72.73,78.26,72.73,74.13Z" fill="#fbfdfc" fill-rule="evenodd"/>
          <path d="M43.85,72.38H35.92v5h7.43a6.7,6.7,0,0,1-6,4.23c-3.7,0-6.7-3.36-6.7-7.49s3-7.48,6.7-7.48A6.57,6.57,0,0,1,43,70.07h7a12.51,12.51,0,1,0,.55,2.31Z" fill="#fbfdfc"/>
        </g>
        <path d="M35.92,32.6s-4.3-5.29-2.37-11.94c0,0,1.79-5.95,11-8,0,0,5.32-1.06,8.6,1.93A23.93,23.93,0,0,1,55,16.88l5.7-3.38,1,1.16Z" fill="#fbfdfc"/>
        <path d="M36.07,32.7s3,4.33,3.17,4.43v.16a17,17,0,0,0-1.81,2s-6.21,8.28-5.68,22H54.18a48.42,48.42,0,0,0-2.75-14.53s2.8.53,11.1,1.84l3.84,12.73,2.71.35L65.2,48.12s2.76-1.28.46-5.41l-2,.34-.74-2.45L58,42,46.76,37.38s7.33,1,8.71.73c0,0,6.16-9.14.89-18.37A47.84,47.84,0,0,0,48,26s-2.86,2.18-2.08,4.28c0,0-3-1.3-3.85-.27,0,0-.52,1.13,1.26,3.7l-2.68,2.48a13.22,13.22,0,0,1-3.94-3.94Z" fill="#fbfdfc"/>
      </g>
      <g>
        <g>
          <path d="M33.44,38.79h-.09A3.43,3.43,0,0,0,30,41.16s-.42.81-.68,4.26a1.78,1.78,0,0,1-.52,1.13c-.62.59-1.14,1.06-.91.89l-.2.64s-.83,8.21-.25,8.74c0,0,.29,1.11,1,1.11l10.78.34a1.69,1.69,0,0,0,1-.27,1.55,1.55,0,0,0,.71-1.22c.08-1.06.23-6.67.28-8.59a1.73,1.73,0,0,0-.39-1.13c-.46-.58-1.1-1.23-1-1.55,0,0,.82-7-3.53-6.72Z" fill="#fbfdfc"/>
          <path d="M33.24,38.8l.13-.25a.13.13,0,0,1,.12-.09H36a.12.12,0,0,1,.12.1l.11.24Z" fill="#fbfdfc"/>
        </g>
        <g>
          <path d="M31.84,38h-.08a3.43,3.43,0,0,0-3.4,2.38s-.43.81-.68,4.26a1.69,1.69,0,0,1-.53,1.12c-.61.59-1.14,1.06-.9.9l-.21.63s-.82,8.22-.24,8.75c0,0,.29,1.12,1,1.12l10.78.32a1.61,1.61,0,0,0,1-.26A1.57,1.57,0,0,0,39.28,56c.08-1.05.23-6.66.28-8.58a1.72,1.72,0,0,0-.38-1.13c-.47-.58-1.1-1.23-1-1.55,0,0,.82-7-3.53-6.73Z" fill="#fbfdfc"/>
          <path d="M32,37.87c-.05,0-.09-.07-.07-.14a3.84,3.84,0,0,1,.23-.82h1.86a.14.14,0,0,1,.13.1c0,.24.19.84.11.86S32.49,37.88,32,37.87Z" fill="#fbfdfc"/>
          <path d="M31.65,38l.12-.24a.13.13,0,0,1,.13-.09h2.49a.12.12,0,0,1,.12.09l.11.24Z" fill="#fbfdfc"/>
        </g>
        <path d="M36.4,51.91l-6.87-.07a.55.55,0,0,1-.37-.12,1.15,1.15,0,0,1-.31-.7l0-4.31h.28l0,4.3a.9.9,0,0,0,.21.49.23.23,0,0,0,.18,0h0l6.86.07a.68.68,0,0,0,.46-.47l0-4.37h.28l0,4.4a1,1,0,0,1-.67.71Z" fill="#fbfdfc"/>
      </g>
    </g>
    <rect x="92.78" y="6.24" width="1.68" height="87.07" fill="#fbfdfc"/>
  </g>
</svg>
