<svg xmlns="http://www.w3.org/2000/svg" width="100" height="100" viewBox="0 0 100 100">
  <title>Asset 71</title>
  <g id="fc64ccb0-c8ac-4c9d-b769-03633efac8bd" data-name="Layer 2">
    <g id="e3c6ab33-fea5-49f4-9edd-c716e537475d" data-name="Layer 1">
      <g>
        <rect width="100" height="100" fill="none"/>
        <g>
          <g>
            <g>
              <rect x="21.21" y="60.56" width="5.67" height="22.07" fill="#fbfdfc"/>
              <path d="M78.79,71.8A11.74,11.74,0,1,1,67.05,60.28,11.63,11.63,0,0,1,78.79,71.8Zm-5.62,0c0-3.7-2.74-6.7-6.12-6.7s-6.12,3-6.12,6.7,2.74,6.7,6.12,6.7S73.17,75.5,73.17,71.8Z" fill="#fbfdfc" fill-rule="evenodd"/>
              <path d="M47.34,70.25h-7.1v4.49H46.9a6,6,0,0,1-5.39,3.76c-3.31,0-6-3-6-6.69s2.68-6.7,6-6.7a5.87,5.87,0,0,1,5,3.06h6.31a11.57,11.57,0,1,0,.59,3.63,11.46,11.46,0,0,0-.11-1.56h-6Z" fill="#fbfdfc"/>
            </g>
            <path d="M40.26,34.65A12.53,12.53,0,0,1,38.14,24s1.6-5.32,9.82-7.14c0,0,4.75-.95,7.7,1.73a20.2,20.2,0,0,1,1.68,2l5.11-3,.9,1Z" fill="#fbfdfc"/>
            <path d="M40.38,34.74s2.72,3.88,2.86,4,0,0,0,.15a15,15,0,0,0-1.62,1.77S36,48,36.52,60.28H56.59a43.47,43.47,0,0,0-2.47-13s2.51.48,9.95,1.64l3.41,11.39,2.43.31L66.45,48.53s2.46-1.14.41-4.84L65,44l-.67-2.18L60,43.08,50,38.93s6.55.89,7.78.65c0,0,5.52-8.17.8-16.43a42.87,42.87,0,0,0-7.48,5.62s-2.55,1.94-1.86,3.83c0,0-2.64-1.17-3.44-.24,0,0-.45,1,1.13,3.3l-2.4,2.21A11.8,11.8,0,0,1,41,34.35Z" fill="#fbfdfc"/>
          </g>
          <g>
            <g>
              <path d="M38,40.19H38a3.08,3.08,0,0,0-3,2.13,12.37,12.37,0,0,0-.61,3.81,1.54,1.54,0,0,1-.47,1c-.54.53-1,.92-.8.8l-.19.56s-.74,7.35-.22,7.83c0,0,.26,1,.91,1l9.64.3a1.52,1.52,0,0,0,.88-.24,1.39,1.39,0,0,0,.63-1.09c.08-.93.21-6,.25-7.69a1.56,1.56,0,0,0-.34-1c-.42-.51-1-1.1-.86-1.38,0,0,.74-6.24-3.15-6Z" fill="#fbfdfc"/>
              <path d="M37.85,40.2,38,40a.13.13,0,0,1,.11-.08H40.3a.13.13,0,0,1,.12.09l.09.22Z" fill="#fbfdfc"/>
            </g>
            <g>
              <path d="M36.6,39.45h-.08a3.06,3.06,0,0,0-3,2.12,12.41,12.41,0,0,0-.61,3.82,1.47,1.47,0,0,1-.47,1c-.54.53-1,.93-.8.81l-.19.56s-.74,7.35-.22,7.82c0,0,.26,1,.91,1l9.64.29a1.52,1.52,0,0,0,.88-.24,1.41,1.41,0,0,0,.64-1.09c.07-.93.2-6,.24-7.68a1.53,1.53,0,0,0-.34-1c-.41-.52-1-1.11-.85-1.39,0,0,.73-6.24-3.16-6Z" fill="#fbfdfc"/>
              <path d="M36.77,39.37c-.05,0-.08-.07-.07-.13a3,3,0,0,1,.21-.73c.06,0,1.31,0,1.66,0a.13.13,0,0,1,.11.1c.06.21.18.74.11.77S37.17,39.38,36.77,39.37Z" fill="#fbfdfc"/>
              <path d="M36.42,39.46l.12-.22a.11.11,0,0,1,.11-.08h2.23a.12.12,0,0,1,.11.08l.09.22Z" fill="#fbfdfc"/>
            </g>
            <path d="M40.68,51.92l-6.16-.06a.44.44,0,0,1-.33-.11,1.05,1.05,0,0,1-.28-.61l0-3.87h.25l0,3.85a.76.76,0,0,0,.19.43.18.18,0,0,0,.16,0h0l6.13.06a.6.6,0,0,0,.41-.42l0-3.91h.25l0,3.93a.88.88,0,0,1-.61.64Z" fill="#fbfdfc"/>
          </g>
        </g>
      </g>
    </g>
  </g>
</svg>
