<svg id="f2d293d5-cf3a-4c09-a6b2-e506e1cccb88" data-name="Layer 1" xmlns="http://www.w3.org/2000/svg" width="35mm" height="35mm" viewBox="0 0 99.21 99.21">
  <title>What you get</title>
  <g>
    <polygon points="16.08 54.66 16.26 59.66 26.41 59.6 25.77 54.66 16.08 54.66" fill="#66cae0"/>
    <path d="M71.25,78.58s.93-5,5.23.44c0,0-6.12,10.25-6.4,7.72,0,0-7.11-4.92-6-7.62C64,79.12,66.43,74.38,71.25,78.58Z" fill="#e0d167"/>
    <g>
      <path d="M72.46,25.79V28.4h0v1.23A30.68,30.68,0,0,0,72.46,25.79Z" fill="none"/>
      <path d="M56.17,66.08h0c2.87,0,4-2.29,4.43-2.65a.11.11,0,0,0,0-.08V59.66a16.35,16.35,0,0,1-8.92,0v3.69a.11.11,0,0,0,0,.08C52.15,63.79,53.3,66.08,56.17,66.08Z" fill="none"/>
      <path d="M39.89,28.16l0,0c0,.68,0,1.08,0,1.08v-.8C39.88,28.33,39.89,28.25,39.89,28.16Z" fill="none"/>
      <path d="M41.73,26.44a7.58,7.58,0,0,0,3.33.77h25V23.26a12,12,0,0,0-12-12h-10a15.8,15.8,0,0,0-5,4.59A21.3,21.3,0,0,0,40,25.24a7.62,7.62,0,0,0,1.58,1.11Z" fill="none"/>
      <path d="M18.88,47.55a1.15,1.15,0,0,1,.25.73v4.36h5.31v-3.4a1.19,1.19,0,0,1,.51-1l6.76-4.73A.94.94,0,0,0,30.63,42l-3,2.07a1.18,1.18,0,0,1-1.24.08,1.2,1.2,0,0,1-.65-1.06V39.22a4,4,0,1,0-8,0V45.4a2.17,2.17,0,0,0,.44,1.3Z" fill="none"/>
      <path d="M70,44.72a1.2,1.2,0,0,1,1.2-1.14h1.19a2.33,2.33,0,0,0,2.32-2.33V39.59a2.33,2.33,0,0,0-2.32-2.33H71.26a1.2,1.2,0,0,1-1.2-1.2V29.61h-25a9.88,9.88,0,0,1-2.78-.39v6.84a1.19,1.19,0,0,1-1.2,1.2H39.91a2.33,2.33,0,0,0-2.32,2.33v1.66a2.33,2.33,0,0,0,2.32,2.33h1.2a1.21,1.21,0,0,1,1.2,1.14,13.89,13.89,0,0,0,23.37,9.39,18.79,18.79,0,0,0,2.69-3.49A13.69,13.69,0,0,0,70,44.72ZM47.42,37v-.73a1.2,1.2,0,0,1,2.4,0V37a1.2,1.2,0,0,1-2.4,0ZM63,45.67a7.32,7.32,0,0,1-12,2.42,7.1,7.1,0,0,1-1.6-2.42,1.2,1.2,0,1,1,2.22-.9,4.91,4.91,0,0,0,9.1,0,1.2,1.2,0,0,1,2.23.9Zm2-8.63a1.2,1.2,0,0,1-2.4,0v-.73a1.2,1.2,0,1,1,2.4,0Z" fill="none"/>
      <path d="M73.6,77.18a2,2,0,0,0-2,1.26,1.2,1.2,0,0,1-1.14.82,1.19,1.19,0,0,1-1.13-.82,2,2,0,0,0-1.84-1.27h-.14c-1,.09-1.31,1.08-1.42,1.9-.5,3.55,3.32,5.49,4.53,5.93,1.21-.44,5-2.38,4.54-5.93C74.9,78.26,74.56,77.27,73.6,77.18Z" fill="none"/>
      <path d="M21.69,72A4.06,4.06,0,0,1,17.63,68V55.05h8.16v6.28a2.52,2.52,0,0,0,2.52,2.52H49.36c.19.93.74,1.3,1.26,2a7.15,7.15,0,0,0,5.55,2.63h0A7.77,7.77,0,0,0,62.46,65,2.53,2.53,0,0,0,63,63.85h2.9a8.19,8.19,0,0,1,6.88,3.73,1.18,1.18,0,0,0,1,.55,1.21,1.21,0,0,0,.65-.2,1.2,1.2,0,0,0,.35-1.66,10.58,10.58,0,0,0-8.89-4.82H63V58.76a16,16,0,0,0,4.29-2.9l-1.64-1.75a13.88,13.88,0,0,1-23.37-9.39,1.21,1.21,0,0,0-1.2-1.14h-1.2a2.33,2.33,0,0,1-2.32-2.33V39.59a2.33,2.33,0,0,1,2.32-2.33h1.17a1.19,1.19,0,0,0,1.2-1.2V29.22a9.88,9.88,0,0,0,2.78.39h25v6.45a1.2,1.2,0,0,0,1.2,1.2h1.17a2.33,2.33,0,0,1,2.32,2.33v1.66a2.33,2.33,0,0,1-2.32,2.33H71.24A1.2,1.2,0,0,0,70,44.72a13.69,13.69,0,0,1-1.67,5.9l2.11,1.15A16.12,16.12,0,0,0,72.34,46h.09a4.73,4.73,0,0,0,4.73-4.73V39.59a4.74,4.74,0,0,0-4.7-4.73V28.41h0V25.79c-.18-3.14-.87-7.58-3.14-10.83,0,0-2-4-8.4-5.79a14.63,14.63,0,0,0-2.84-.28h-2l.07.13a16.1,16.1,0,0,0-8.1,2.27h10a12,12,0,0,1,12,12v3.95h-25a7.58,7.58,0,0,1-3.33-.77l-.17-.09A7.62,7.62,0,0,1,40,25.24a23.66,23.66,0,0,0-.14,2.89l0,0c0,.09,0,.17,0,.25v6.45a4.73,4.73,0,0,0-4.69,4.73v1.66A4.73,4.73,0,0,0,39.91,46H40a16.34,16.34,0,0,0,9.3,12.78v2.69h-21a.12.12,0,0,1-.12-.12V54.54a1.89,1.89,0,0,0-1.35-1.81V49.87l6.25-4.38a3.35,3.35,0,0,0,.82-4.66A3.36,3.36,0,0,0,29.25,40l-1.07.75V39.22a6.4,6.4,0,1,0-12.79,0V45.4a4.56,4.56,0,0,0,.94,2.77l.4.52v4a1.9,1.9,0,0,0-1.5,1.85V68a6.46,6.46,0,0,0,6.46,6.45h1V72Zm30-12.35a16.35,16.35,0,0,0,8.92,0v3.69a.11.11,0,0,1,0,.08c-.4.36-1.56,2.65-4.43,2.65h0c-2.87,0-4-2.29-4.43-2.65a.11.11,0,0,1,0-.08ZM17.79,39.22a4,4,0,1,1,8,0v3.85a1.2,1.2,0,0,0,.65,1.06,1.18,1.18,0,0,0,1.24-.08l3-2.07a.94.94,0,0,1,1.08,1.55L25,48.26a1.19,1.19,0,0,0-.51,1v3.4H19.13V48.28a1.15,1.15,0,0,0-.25-.73l-.65-.85a2.17,2.17,0,0,1-.44-1.3Z" fill="#174170"/>
      <path d="M75.28,87.24a1.2,1.2,0,0,0-1.2,1.2H44.57V74.61A2.6,2.6,0,0,0,42,72H27.53v2.4H42a.2.2,0,0,1,.2.2V89A1.84,1.84,0,0,0,44,90.84H74.64A1.84,1.84,0,0,0,76.48,89v-.56A1.2,1.2,0,0,0,75.28,87.24Z" fill="#174170"/>
      <path d="M62.28,44.11a1.19,1.19,0,0,0-1.56.66,4.92,4.92,0,0,1-9.1,0,1.2,1.2,0,1,0-2.22.9A7.1,7.1,0,0,0,51,48.09a7.32,7.32,0,0,0,12-2.42A1.19,1.19,0,0,0,62.28,44.11Z" fill="#174170"/>
      <path d="M49.82,37v-.73a1.2,1.2,0,0,0-2.4,0V37a1.2,1.2,0,0,0,2.4,0Z" fill="#174170"/>
      <path d="M63.72,35.11a1.2,1.2,0,0,0-1.2,1.2V37a1.2,1.2,0,0,0,2.4,0v-.73A1.2,1.2,0,0,0,63.72,35.11Z" fill="#174170"/>
      <path d="M73.82,74.79A4.39,4.39,0,0,0,70.48,76a4.39,4.39,0,0,0-3.34-1.16c-1.91.18-3.24,1.66-3.57,3.95a7,7,0,0,0,2.6,6.43,10.77,10.77,0,0,0,4,2.26,1.15,1.15,0,0,0,.26,0,1.24,1.24,0,0,0,.27,0,10.75,10.75,0,0,0,4-2.26,7,7,0,0,0,2.6-6.43C77.07,76.45,75.73,75,73.82,74.79ZM70.48,85c-1.21-.44-5-2.38-4.53-5.93.11-.82.45-1.81,1.42-1.9h.14a2,2,0,0,1,1.84,1.27,1.19,1.19,0,0,0,1.13.82,1.2,1.2,0,0,0,1.14-.82,2,2,0,0,1,2-1.26c1,.09,1.3,1.08,1.42,1.9C75.52,82.63,71.69,84.57,70.48,85Z" fill="#174170"/>
      <path d="M77.6,67.78a1.21,1.21,0,0,0-1.53.74l-1,2.87a1.2,1.2,0,0,0,.74,1.53,1.07,1.07,0,0,0,.39.07,1.21,1.21,0,0,0,1.14-.81l1-2.87A1.2,1.2,0,0,0,77.6,67.78Z" fill="#174170"/>
      <path d="M69.22,68.26a1.21,1.21,0,0,0-.56,1.6L70,72.6a1.21,1.21,0,0,0,1.09.68,1.23,1.23,0,0,0,.52-.12,1.2,1.2,0,0,0,.56-1.6l-1.32-2.74A1.2,1.2,0,0,0,69.22,68.26Z" fill="#174170"/>
      <path d="M83.86,73.37a1.21,1.21,0,0,0-1.6-.56l-2.74,1.32a1.2,1.2,0,1,0,1,2.17L83.3,75A1.2,1.2,0,0,0,83.86,73.37Z" fill="#174170"/>
      <path d="M69.42,52.4a1.18,1.18,0,0,1-.57-.15,1.2,1.2,0,0,1-.48-1.63,18.79,18.79,0,0,1-2.69,3.49,1.2,1.2,0,0,1,1.64,1.75,15.46,15.46,0,0,0,3.16-4.09A1.21,1.21,0,0,1,69.42,52.4Z" fill="#174170"/>
      <path d="M67.37,54.16a1.2,1.2,0,0,0-1.69,0l1.64,1.75A1.2,1.2,0,0,0,67.37,54.16Z" fill="#174170"/>
      <path d="M68.85,52.25a1.18,1.18,0,0,0,.57.15,1.21,1.21,0,0,0,1.06-.63l-2.11-1.15A1.2,1.2,0,0,0,68.85,52.25Z" fill="#174170"/>
      <path d="M26.32,73.21A1.21,1.21,0,0,1,27.53,72H22.72a1.2,1.2,0,0,1,0,2.4h4.81A1.21,1.21,0,0,1,26.32,73.21Z" fill="#174170"/>
      <path d="M23.92,73.21a1.2,1.2,0,0,0-1.2-1.2v2.4A1.19,1.19,0,0,0,23.92,73.21Z" fill="#174170"/>
      <path d="M26.32,73.21a1.21,1.21,0,0,0,1.21,1.2V72A1.21,1.21,0,0,0,26.32,73.21Z" fill="#174170"/>
      <path d="M69.32,15c2.27,3.25,3,7.69,3.14,10.83V23.26A14.4,14.4,0,0,0,60.92,9.17C67.28,11,69.32,15,69.32,15Z" fill="#174170"/>
    </g>
    <g>
      <path d="M71.34,28.06S73.43,10.91,56.29,9.47c0,0-13-.06-15.28,14.14l-11.73.3s-2.34,2.29,0,3.85Z" fill="#f06724"/>
      <path d="M72.51,28.86c0-.4,0-.63,0-1h0V24.57c0-.36,0-.73,0-1.09A19.35,19.35,0,0,0,71,17.75a16.42,16.42,0,0,0-5.35-6.41,18.66,18.66,0,0,0-9.29-3h-.05a18.17,18.17,0,0,0-9.34,3,16.32,16.32,0,0,0-4.33,4.55,17.39,17.39,0,0,0-2.2,5.49c-.07.34-.13.68-.17,1H30.36a3.26,3.26,0,0,0-3.23,3.15.28.28,0,0,0,0,.09,3.69,3.69,0,0,0,1.12,2.45,3.17,3.17,0,0,0,.82.52l.1,0h0a3.39,3.39,0,0,0,.9.22H68.17ZM40.08,26.73H30.36a1.08,1.08,0,1,1,0-2.16h9.72Zm10.91,0a5.41,5.41,0,0,1,10.59,0Zm19.34,0H63.76a7.55,7.55,0,0,0-14.95,0H42.24V24.57a14,14,0,0,1,28.09,0Z" fill="#174170"/>
    </g>
  </g>
</svg>
