<svg id="b4051119-3e07-4547-a774-6ed90661231c" data-name="Layer 1" xmlns="http://www.w3.org/2000/svg" width="35mm" height="35mm" viewBox="0 0 99.21 99.21">
  <title>What you get</title>
  <g>
    <path d="M44.77,46h9.7s2.58.73,2.72,2.57l-1.3,18.75L52.71,65s-3.87,2.31-5.5,0l-3.36,3.28-2-19.71S43.08,45.55,44.77,46Z" fill="#448959"/>
    <path d="M46.23,65s-4,4.89-4.33,7.61c0,0,6.4,4.63,15.29,0,0,0-2.2-5.67-4.48-7.61C52.71,65,50.05,67.3,46.23,65Z" fill="#66cae0"/>
    <rect x="28.89" y="42.79" width="5.88" height="3.88" fill="#e0d167"/>
    <rect x="64.49" y="42.79" width="5.88" height="3.95" fill="#e0d167"/>
    <circle cx="49.63" cy="62.6" r="3.4" fill="#f06724"/>
    <g>
      <path d="M31.56,39.57h36a4.4,4.4,0,0,0,4.47-4.32,3.46,3.46,0,0,0,0-.46l-1.21-16a5,5,0,0,0-5-4.57H33.3a5.05,5.05,0,0,0-5,4.58l-1.21,16a4.37,4.37,0,0,0,4,4.73A3.54,3.54,0,0,0,31.56,39.57Zm-2-4.58,1.21-16a2.58,2.58,0,0,1,2.52-2.3H65.84A2.58,2.58,0,0,1,68.36,19l1.21,16a1.92,1.92,0,0,1-.51,1.5,2,2,0,0,1-1.48.6h-36a1.93,1.93,0,0,1-2-2.11Z" fill="#036"/>
      <path d="M36,43.26a1.58,1.58,0,0,0-1.58-1.58H29.17a1.58,1.58,0,0,0-1.58,1.58h0v3a1.59,1.59,0,0,0,1.58,1.59h5.29A1.58,1.58,0,0,0,36,46.26h0Zm-1.58,3.17H29.17V43.1h5.29Z" fill="#036"/>
      <path d="M71.8,43.26a1.59,1.59,0,0,0-1.59-1.58H64.92a1.58,1.58,0,0,0-1.58,1.58h0v3a1.59,1.59,0,0,0,1.58,1.59h5.29a1.59,1.59,0,0,0,1.59-1.59h0Zm-1.58,3.17h-5.3V43.1h5.3Z" fill="#036"/>
      <path d="M18.81,25.42l.88,4.7a1.21,1.21,0,0,0,.29.6L23,34c-.26,3-.44,5.87-.44,8s.07,9.42.16,16.67c-3.14,2.69-3.44,10-3.47,10.85a1.17,1.17,0,0,0,.35.86,1.24,1.24,0,0,0,.88.33H21.6V81.23a3,3,0,0,0,3.06,2.9h2.89a3,3,0,0,0,3-2.9V79.06c2.65,0,7.05.06,14.45.09v9.22a2.94,2.94,0,0,0,2.89,3h3.34a2.94,2.94,0,0,0,2.92-2.95V79.15c7.23,0,11.63-.07,14.45-.1v2.18a2.85,2.85,0,0,0,2.81,2.9h3a2.89,2.89,0,0,0,3-2.83V70.74h1.38A1.16,1.16,0,0,0,80,69.64v-.11c0-.87-.35-8.16-3.49-10.86.1-7.2.19-14.53.19-16.47,0-2.17-.2-5.08-.46-8.21l3-3.27a1.25,1.25,0,0,0,.29-.6l.89-4.7A3.84,3.84,0,1,0,78,25.1l-.8,4.23L76,30.64c-.14-1.52-.29-3-.44-4.52-.32-3.33-.63-6.48-.78-8.75a9.44,9.44,0,0,0-8.48-8.62L64.06,8.6c-4.33-.31-10.25-.73-14.78-.73s-9.81.4-13.72.69L33,8.74a9.48,9.48,0,0,0-8.48,8.63c-.14,2.26-.45,5.39-.78,8.71-.15,1.5-.3,3.06-.44,4.6l-1.22-1.35-.8-4.23a3.85,3.85,0,1,0-2.45.32Zm60.85-5.15a1.38,1.38,0,1,1-1.38,1.38h0A1.38,1.38,0,0,1,79.66,20.27ZM22.19,65.38a18.14,18.14,0,0,1,.55-2.17c0,1.83.05,3.66.07,5.07h-1C21.84,67.57,22,66.49,22.19,65.38Zm5.93,15.85c0,.28-.3.43-.57.43H24.66c-.28,0-.59-.15-.59-.43V77.48a6,6,0,0,0,2.23,1.43,8.5,8.5,0,0,0,1.82.1ZM43.23,49.3A2,2,0,0,1,45,47.15h9a2,2,0,0,1,2,1.94,1.7,1.7,0,0,1,0,.22L54.75,65.37a9,9,0,0,0-.77-.74,4.8,4.8,0,1,0-8.76,0,6.83,6.83,0,0,0-.85.85Zm4.63,14.91,0,0a2.39,2.39,0,1,1,3.37.2A2.4,2.4,0,0,1,47.84,64.19Zm-1.1,2.31a4.8,4.8,0,0,0,5.67,0,11,11,0,0,1,2.13,2.91,1.35,1.35,0,0,0,.15.26c.44.82.84,1.68,1.18,2.48a17.63,17.63,0,0,1-2.91.86,1.05,1.05,0,0,0-.4.07,18.28,18.28,0,0,1-3,.28,16.05,16.05,0,0,1-2.93-.27,1,1,0,0,0-.35-.06,16.39,16.39,0,0,1-2.9-.87c.87-2.13,2.24-4.72,3.4-5.68Zm4.5,22.36H48a.48.48,0,0,1-.46-.49V78.16c0-.08,0-.16,0-.24s0-.16,0-.24V75.74a14.1,14.1,0,0,0,2,.12,17.6,17.6,0,0,0,2.18-.13V88.37a.48.48,0,0,1-.44.51Zm23.22-7.22H71.54a.4.4,0,0,1-.45-.35V79a10.92,10.92,0,0,0,1.9-.12,4.86,4.86,0,0,0,2-1.33v3.67a.44.44,0,0,1-.49.43Zm2.58-16.32c.23,1.12.36,2.23.43,2.93H76.41c0-1.4,0-3.27.08-5.11a19.93,19.93,0,0,1,.57,2.18ZM27,17.53a6.92,6.92,0,0,1,6.18-6.33c.78,0,1.66-.11,2.6-.19,3.87-.28,9.17-.68,13.54-.68s10.32.42,14.6.73l2.24.15a6.9,6.9,0,0,1,6.18,6.32c.15,2.31.46,5.48.79,8.83.55,5.63,1.18,12,1.18,15.84,0,2.2-.09,9.75-.19,17a.48.48,0,0,0,0,.17c0,3.64-.11,7.19-.15,9.92a1.32,1.32,0,0,0,0,.56c0,2.56-.06,4.29-.07,4.52a2.56,2.56,0,0,1-1.59,2.14c-1.33.08-11,.14-18.08.17V75.29A17.37,17.37,0,0,0,58,73.93a1.23,1.23,0,0,0,.59-1.51A33.33,33.33,0,0,0,57,68.75s0,0,0,0l1.48-19.22a4.44,4.44,0,0,0-4-4.8,2.77,2.77,0,0,0-.41,0H45.22a4.42,4.42,0,0,0-4.46,4.39,2.81,2.81,0,0,0,0,.41l1.37,19.44a32,32,0,0,0-1.51,3.51,1.24,1.24,0,0,0,.58,1.48A16.21,16.21,0,0,0,45,75.31v1.37c-7.05,0-16.74-.08-18-.16a2.56,2.56,0,0,1-1.62-2.15c0-.21,0-2-.07-4.54a1.25,1.25,0,0,0,0-.51C25.18,61.05,25,45.26,25,42c0-3.81.63-10.13,1.18-15.71C26.5,23,26.81,19.83,27,17.53Zm-7.41,2.74a1.38,1.38,0,1,1-1.38,1.38h0A1.38,1.38,0,0,1,19.55,20.27Z" fill="#036"/>
    </g>
    <rect x="31.65" y="22.96" width="13.29" height="1.18" rx="0.42" transform="translate(-6.21 29.94) rotate(-39.76)" fill="#66cae0"/>
    <rect x="35.6" y="24.36" width="9.51" height="1.18" rx="0.42" transform="translate(-6.62 31.58) rotate(-39.76)" fill="#66cae0"/>
    <rect x="33.75" y="21.64" width="5.46" height="1.18" rx="0.42" transform="translate(-5.78 28.48) rotate(-39.76)" fill="#66cae0"/>
  </g>
</svg>
