<svg id="b71172cb-ae77-4147-bfa4-8002091204bf" data-name="Layer 1" xmlns="http://www.w3.org/2000/svg" width="35mm" height="35mm" viewBox="0 0 99.21 99.21">
  <title>What you get</title>
  <g id="a4ef9537-c14f-45fe-85fb-8768b6c977a7" data-name="Layer 17">
    <path d="M32,10.66s12.16,1.14,12,12.76c0,0-1.82,8.83-4.41,11.8L32,46.64,24.64,36.18s-6.42-8.92-4.8-15.38C19.84,20.8,22,10.56,32,10.66Z" fill="#e0d167"/>
    <circle cx="32.02" cy="21.77" r="3.62" fill="#fff"/>
    <g>
      <path d="M92.88,27.53a1.28,1.28,0,0,0-1.37-.14l-28,10L43.89,30.28A20.19,20.19,0,0,0,45.54,23a13.26,13.26,0,0,0-4-9.6A13.58,13.58,0,0,0,18.37,23c0,2.61,1,5.77,2.61,9.61L6.71,37.41a1.65,1.65,0,0,0-1,1.37v49.4a1.45,1.45,0,0,0,.68,1.24,2.07,2.07,0,0,0,.83.27.82.82,0,0,0,.55-.14l28-9.88L63,89.69a1.15,1.15,0,0,0,1,0L92.47,79.54a1.67,1.67,0,0,0,1-1.38V28.77A1.12,1.12,0,0,0,92.88,27.53ZM32,12.16a10,10,0,0,1,7.41,3.16h0a10.2,10.2,0,0,1,3.15,7.41,19.43,19.43,0,0,1-2.06,7.55A83.67,83.67,0,0,1,32,44.13a4.86,4.86,0,0,1-.69-1,76.29,76.29,0,0,1-6.72-10.84c-2.06-4-3-7.27-3-9.74A10.42,10.42,0,0,1,32,12.16ZM90.55,77.07l-27,9.6-27.17-10c-.14,0-.41-.13-.55-.13a.86.86,0,0,0-.55.13L8.77,86.12V39.88l13.72-4.8v.14c.14.13.14.27.27.41l.41.82c.14.14.14.28.28.41l.41.83c.14.13.14.27.28.41a2.58,2.58,0,0,0,.41.68c.13.14.13.28.27.42s.28.41.41.68.14.28.28.41.27.41.41.69.14.27.27.41.28.41.42.69.13.27.27.41.27.41.41.68.14.28.28.28A1.83,1.83,0,0,0,28,44c0,.13.13.13.13.27a1.87,1.87,0,0,0,.42.55l.13.14c.14.14.28.41.42.55l.13.13c.14.14.28.42.41.55h0l.42.41h0c.27.42.54.69.54.83a1.36,1.36,0,0,0,1.24.55,2.49,2.49,0,0,0,1.23-.55l.42-.41.13-.14.28-.28.13-.13c.14-.14.14-.28.28-.41s.14-.14.14-.28.27-.27.27-.41.14-.27.28-.41a2.23,2.23,0,0,0,.41-.55c.13-.14.13-.28.27-.41a1.83,1.83,0,0,0,.41-.55c.14-.14.28-.28.28-.41s.27-.41.41-.55.27-.41.41-.55.28-.41.41-.55.28-.41.41-.55.28-.41.42-.68.27-.42.41-.55.27-.41.41-.69.27-.41.41-.69.27-.41.41-.68.28-.41.41-.69.28-.41.42-.68.27-.42.41-.69.27-.41.41-.69.27-.41.41-.68a3,3,0,0,1,.41-.69c.14-.27.28-.41.28-.68v-.14L63.1,40a1.15,1.15,0,0,0,1,0l26.49-9.47V77.07Z" fill="#036"/>
      <path d="M77.79,63.76a2.43,2.43,0,0,0,1,.13,4.65,4.65,0,0,0,2.33-.68A4.83,4.83,0,0,0,83,60.46a4.62,4.62,0,0,0-.55-3.29,4.84,4.84,0,0,0-2.74-1.92,4.51,4.51,0,0,0-5.35,3.29h0a4.65,4.65,0,0,0,.54,3.3A5.73,5.73,0,0,0,77.79,63.76Zm-.42-4.67A1.4,1.4,0,0,1,79,58c.41.14.69.28.82.69a1.44,1.44,0,0,1,.14,1.1c-.14.41-.27.68-.68.82a1.49,1.49,0,0,1-1.1.14c-.41-.14-.69-.28-.83-.69Z" fill="#448959"/>
      <path d="M20.84,59.23l-1,.55-.55-1a1.48,1.48,0,0,0-2.47,1.64l.55,1-1,.55A1.4,1.4,0,0,0,16,64a1,1,0,0,0,1.1.69,1.91,1.91,0,0,0,.82-.28l1-.55.55,1a1.61,1.61,0,0,0,1.24.69,2.08,2.08,0,0,0,.82-.27,1.41,1.41,0,0,0,.41-2.06l-.55-1,1-.55a1.4,1.4,0,0,0,.41-2.06A1.32,1.32,0,0,0,20.84,59.23Z" fill="#f06724"/>
      <path d="M35,63.34a24.39,24.39,0,0,1-5.63-.68,1.53,1.53,0,0,0-.55,3,37.3,37.3,0,0,0,6.18.68h0a1.51,1.51,0,0,0,0-3Z" fill="#66cae0"/>
      <path d="M46.23,58.13a11.19,11.19,0,0,1-3.43,3.29,15.78,15.78,0,0,1-1.51.83,1.57,1.57,0,0,0-.83,2.06,1.69,1.69,0,0,0,1.38,1,.79.79,0,0,0,.54-.14,7.64,7.64,0,0,0,1.79-1,16.54,16.54,0,0,0,4.25-4,1.38,1.38,0,0,0-.27-2.06C47.74,57.31,46.78,57.44,46.23,58.13Z" fill="#66cae0"/>
      <path d="M57.2,48.25a8.14,8.14,0,0,0-3.15.69,11.51,11.51,0,0,0-4,3.15,1.67,1.67,0,0,0,.14,2.2,1.48,1.48,0,0,0,1,.41,1.24,1.24,0,0,0,1.09-.55,9.9,9.9,0,0,1,2.89-2.33,8.78,8.78,0,0,1,2.05-.55,1.51,1.51,0,0,0,0-3Z" fill="#66cae0"/>
      <path d="M62.83,50.58a1.62,1.62,0,0,0,.82,2.06,31,31,0,0,1,5.35,3,2,2,0,0,0,.83.28,1.43,1.43,0,0,0,1.23-.69,1.51,1.51,0,0,0-.41-2.06A35.58,35.58,0,0,0,64.75,50,1.29,1.29,0,0,0,62.83,50.58Z" fill="#66cae0"/>
      <path d="M32,26.43a4.67,4.67,0,1,0-4.67-4.66A4.71,4.71,0,0,0,32,26.43Zm0-6.31a1.65,1.65,0,1,1-1.65,1.65A1.9,1.9,0,0,1,32,20.12Z" fill="#174170"/>
    </g>
  </g>
</svg>
